AdmitOOHPriorServices_DataAnalysis.utf8
…
#Member Enrollment Age for First Service in CSOC

df_MemberEnrollAge <- AdmitOOHPriorServices%>%
          group_by(MemberEnrollmentAge )%>%
     summarise(count=n_distinct(memberid))%>%
       arrange(desc(count))

## `summarise()` ungrouping output (override with `.groups` argument)

df_MemberEnrollAge

## # A tibble: 21 x 2
##    MemberEnrollmentAge count
##                  <int> <int>
##  1                  14   237
##  2                  13   215
##  3                  15   200
##  4                  12   175
##  5                  16   161
##  6                  10   154
##  7                   9   141
##  8                  11   141
##  9                   7   139
## 10                   8   111
## # ... with 11 more rows
…
##Zipcode Of Residence

df_MemberZipcode <- AdmitOOHPriorServices%>%
          group_by(MemberZipCode )%>%
          summarise(count=n_distinct(memberid))%>%
          arrange(desc(count))

## `summarise()` ungrouping output (override with `.groups` argument)

df_MemberZipcode

## # A tibble: 381 x 2
##    MemberZipCode count
##    <chr>         <int>
##  1 08046            52
##  2 08104            46
##  3 08054            44
##  4 08081            42
##  5 08060            36
##  6 07305            35
##  7 07601            34
##  8 07055            33
##  9 08502            33
## 10 07103            32
## # ... with 371 more rows
…
